"LightmappedGeneric"
{
	"$basetexture" "maps/oc_nerv/tokyo3/fun_cmdpannel3"
	"$bumpmap" "maps/oc_nerv/tokyo3/fun_cmdpannel3_ssbump.vtf"
	"$surfaceprop" "metal"
	"$ssbump" "1"
	//"$reflectivity" "[0.1 0.1 0.1]"
}
