"Unlittwotexture"
{
	"$basetexture" "maps/oc_nerv/tokyo3/fun_sign21"
	"$selfillum" "1"

	"$surfaceprop" "glass"
	"$texture2"	"models/props_combine/combinescanline"

	"Proxies"
	{

		"Sine"
		{
			"resultVar" "$color[0]"
			"sineperiod" .2
			"sinemin" .99
			"sinemax" 1
		}
		"Sine"
		{
			"resultVar" "$color[1]"
			"sineperiod" .1
			"sinemin" .98
			"sinemax" 1
		}
		"Sine"
		{
			"resultVar" "$color[2]"
			"sineperiod" .1
			"sinemin" .99
			"sinemax" 1
		}

		"TextureScroll"
		{
			"texturescrollvar" "$texture2transform"
			"texturescrollrate" 1
			"texturescrollangle" -90
		}

	}

}
