"LightmappedGeneric"
{
	// Original shader: BaseTimesLightmap
	"$basetexture" "halflife/lab1_stair2b"
	"$surfaceprop" "rubber"

	 "Proxies"
            	{
                    "TextureScroll"
                    {
                            "texturescrollvar" "$baseTextureTransform"
                            "texturescrollrate" 9.5
                            "texturescrollangle" 270
                    }
           	 }
}
