LightmappedGeneric
{
$basetexture "TIMON_Z1535/underground_horror/maze/cracked_e"
$surfaceprop "concrete"
$detail "detail/noise_detail_01"
$detailscale "7.792"
$detailblendfactor ".7"
$detailblendmode "0"
}