// Created by Crowbar 0.68
version 1
nodes
  0 "Ichthyosaur.Body_Cnl_Ori_Parent" -1
  1 "Ichthyosaur.Body_Bone" 0
  2 "Ichthyosaur.TailBone1" 1
  3 "Ichthyosaur.TailBone2" 2
  4 "Ichthyosaur.TailBone3" 3
  5 "Ichthyosaur.TailBone4" 4
  6 "Ichthyosaur.TailBone5" 5
  7 "Ichthyosaur.TailBone6" 6
  8 "Ichthyosaur.TailBone_7" 7
  9 "Ichthyosaur.Head_Bone" 1
  10 "Ichthyosaur.Hair_BoneR" 9
  11 "Ichthyosaur.Hair_BoneMid" 9
  12 "Ichthyosaur.Hair_BoneL" 9
  13 "Ichthyosaur.Jaw_Bone" 9
  14 "Ichthyosaur.ClavR_Bone" 1
  15 "Ichthyosaur.UpperArmR_Bone" 14
  16 "Ichthyosaur.ForeArmR_Bone" 15
  17 "Ichthyosaur.ClawR" 16
  18 "Ichthyosaur.ClavL_Bone" 1
  19 "Ichthyosaur.UpperArmL_Bone" 18
  20 "Ichthyosaur.ForeArmL_Bone" 19
  21 "Ichthyosaur.ClawR1" 20
  22 "Ichthyosaur.FinR1" 1
  23 "Ichthyosaur.FinR2" 22
  24 "Ichthyosaur.Gills_L" 1
  25 "Ichthyosaur.Gills_R" 1
  26 "Ichthyosaur.FinL1" 1
  27 "Ichthyosaur.FinL2" 26
  28 "Ichthyosaur.Fin_Dorsal_R1" 1
  29 "Ichthyosaur.Fin_Dorsal_L1" 1
end
skeleton
  time 0
    0 -14.106149 -0.295760 3.671319 3.141592 0.000000 -3.141592
    1 -14.398877 26.179595 0.000000 -1.567082 0.005501 -4.716115
    2 15.612206 -4.113904 -0.000001 -1.570940 0.000615 -0.026126
    3 28.653730 0.000000 0.000000 -0.001070 -0.033150 0.021498
    4 28.915051 0.000000 0.000000 0.004914 0.008958 0.018733
    5 26.681271 0.000000 0.000000 0.000106 -0.014838 0.015551
    6 25.727402 0.000000 0.000000 0.000000 -0.002577 0.005950
    7 24.309021 0.000000 0.000000 0.000000 0.002573 0.000000
    8 18.553192 -0.000001 -0.000002 0.000000 0.000000 0.000000
    9 -14.505168 7.477315 0.000001 3.138655 -0.006157 -0.035004
    10 -8.574543 -15.469650 15.618923 -2.684487 -0.072823 -3.008401
    11 -8.865223 -17.843554 0.000002 -3.141772 -0.000335 -0.149537
    12 -8.574547 -18.052130 -6.027750 -2.691581 0.065754 -0.135650
    13 3.861284 24.024183 -0.000002 -0.000090 -0.000158 -0.070874
    14 -9.712905 -14.946655 -13.294335 -1.345564 0.641381 -1.051216
    15 13.142379 -0.000002 -0.000001 1.219074 -0.614674 -0.343905
    16 27.970139 -0.000001 0.000000 0.000000 0.000000 -2.333619
    17 29.133217 0.000002 0.000002 3.213209 0.322457 -0.454137
    18 -9.729550 -14.755046 9.830598 1.172447 -0.703755 -0.761750
    19 15.733538 0.000002 0.000000 2.025533 0.226680 -0.279068
    20 27.970112 0.000000 -0.000001 0.000000 0.000000 2.233884
    21 27.680090 0.000001 0.000002 -0.217042 0.194694 0.507706
    22 4.993010 -23.538506 -17.871185 -0.420346 0.012345 -0.183765
    23 16.172516 -0.259539 -0.000005 0.000000 0.000000 0.000000
    24 4.842330 4.476890 21.502810 -0.388350 0.000470 -0.000911
    25 4.842328 4.356966 -21.466049 -0.380859 0.007958 -3.142467
    26 4.976429 -23.588661 18.357018 -2.879316 -0.050954 -0.165836
    27 16.172510 -0.259540 -0.000003 0.000000 0.000000 0.000000
    28 9.501565 17.496380 -7.753404 0.374569 0.040424 3.033428
    29 9.501565 17.651758 9.218251 0.375516 0.031424 -0.100807
  time 1
    0 -14.106149 -0.295760 3.671319 3.141592 0.000000 -3.141592
    1 -14.398877 26.179595 0.000000 -1.567082 0.005501 -4.716115
    2 15.612206 -4.113904 -0.000001 -1.570940 0.000615 -0.026126
    3 28.653730 0.000000 0.000000 -0.001070 -0.033150 0.021498
    4 28.915051 0.000000 0.000000 0.004914 0.008958 0.018733
    5 26.681271 0.000000 0.000000 0.000106 -0.014838 0.015551
    6 25.727402 0.000000 0.000000 0.000000 -0.002577 0.005950
    7 24.309021 0.000000 0.000000 0.000000 0.002573 0.000000
    8 18.553192 -0.000001 -0.000002 0.000000 0.000000 0.000000
    9 -14.505168 7.477315 0.000001 3.138655 -0.006157 -0.035004
    10 -8.574543 -15.469650 15.618923 -2.684487 -0.072823 -3.008401
    11 -8.865223 -17.843554 0.000002 -3.141772 -0.000335 -0.149537
    12 -8.574547 -18.052130 -6.027750 -2.691581 0.065754 -0.135650
    13 3.861284 24.024183 -0.000002 -0.000090 -0.000158 -0.070874
    14 -9.712905 -14.946655 -13.294335 -1.345564 0.641381 -1.051216
    15 13.142379 -0.000002 -0.000001 1.219074 -0.614674 -0.343905
    16 27.970139 -0.000001 0.000000 0.000000 0.000000 -2.333619
    17 29.133217 0.000002 0.000002 3.213209 0.322457 -0.454137
    18 -9.729550 -14.755046 9.830598 1.172447 -0.703755 -0.761750
    19 15.733538 0.000002 0.000000 2.025533 0.226680 -0.279068
    20 27.970112 0.000000 -0.000001 0.000000 0.000000 2.233884
    21 27.680090 0.000001 0.000002 -0.217042 0.194694 0.507706
    22 4.993010 -23.538506 -17.871185 -0.420346 0.012345 -0.183765
    23 16.172516 -0.259539 -0.000005 0.000000 0.000000 0.000000
    24 4.842330 4.476890 21.502810 -0.388350 0.000470 -0.000911
    25 4.842328 4.356966 -21.466049 -0.380859 0.007958 -3.142467
    26 4.976429 -23.588661 18.357018 -2.879316 -0.050954 -0.165836
    27 16.172510 -0.259540 -0.000003 0.000000 0.000000 0.000000
    28 9.501565 17.496380 -7.753404 0.374569 0.040424 3.033428
    29 9.501565 17.651758 9.218251 0.375516 0.031424 -0.100807
  time 2
    0 -14.106149 -0.295760 3.671319 3.141592 0.000000 -3.141592
    1 -14.398877 26.179595 0.000000 -1.567082 0.005501 -4.716115
    2 15.612206 -4.113904 -0.000001 -1.570940 0.000615 -0.026126
    3 28.653730 0.000000 0.000000 -0.001070 -0.033150 0.021498
    4 28.915051 0.000000 0.000000 0.004914 0.008958 0.018733
    5 26.681271 0.000000 0.000000 0.000106 -0.014838 0.015551
    6 25.727402 0.000000 0.000000 0.000000 -0.002577 0.005950
    7 24.309021 0.000000 0.000000 0.000000 0.002573 0.000000
    8 18.553192 -0.000001 -0.000002 0.000000 0.000000 0.000000
    9 -14.505168 7.477315 0.000001 3.138655 -0.006157 -0.035004
    10 -8.574543 -15.469650 15.618923 -2.684487 -0.072823 -3.008401
    11 -8.865223 -17.843554 0.000002 -3.141772 -0.000335 -0.149537
    12 -8.574547 -18.052130 -6.027750 -2.691581 0.065754 -0.135650
    13 3.861284 24.024183 -0.000002 -0.000090 -0.000158 -0.070874
    14 -9.712905 -14.946655 -13.294335 -1.345564 0.641381 -1.051216
    15 13.142379 -0.000002 -0.000001 1.219074 -0.614674 -0.343905
    16 27.970139 -0.000001 0.000000 0.000000 0.000000 -2.333619
    17 29.133217 0.000002 0.000002 3.213209 0.322457 -0.454137
    18 -9.729550 -14.755046 9.830598 1.172447 -0.703755 -0.761750
    19 15.733538 0.000002 0.000000 2.025533 0.226680 -0.279068
    20 27.970112 0.000000 -0.000001 0.000000 0.000000 2.233884
    21 27.680090 0.000001 0.000002 -0.217042 0.194694 0.507706
    22 4.993010 -23.538506 -17.871185 -0.420346 0.012345 -0.183765
    23 16.172516 -0.259539 -0.000005 0.000000 0.000000 0.000000
    24 4.842330 4.476890 21.502810 -0.388350 0.000470 -0.000911
    25 4.842328 4.356966 -21.466049 -0.380859 0.007958 -3.142467
    26 4.976429 -23.588661 18.357018 -2.879316 -0.050954 -0.165836
    27 16.172510 -0.259540 -0.000003 0.000000 0.000000 0.000000
    28 9.501565 17.496380 -7.753404 0.374569 0.040424 3.033428
    29 9.501565 17.651758 9.218251 0.375516 0.031424 -0.100807
  time 3
    0 -14.106149 -0.295760 3.671319 3.141592 0.000000 -3.141592
    1 -14.398877 26.179595 0.000000 -1.567082 0.005501 -4.716115
    2 15.612206 -4.113904 -0.000001 -1.570940 0.000615 -0.026126
    3 28.653730 0.000000 0.000000 -0.001070 -0.033150 0.021498
    4 28.915051 0.000000 0.000000 0.004914 0.008958 0.018733
    5 26.681271 0.000000 0.000000 0.000106 -0.014838 0.015551
    6 25.727402 0.000000 0.000000 0.000000 -0.002577 0.005950
    7 24.309021 0.000000 0.000000 0.000000 0.002573 0.000000
    8 18.553192 -0.000001 -0.000002 0.000000 0.000000 0.000000
    9 -14.505168 7.477315 0.000001 3.138655 -0.006157 -0.035004
    10 -8.574543 -15.469650 15.618923 -2.684487 -0.072823 -3.008401
    11 -8.865223 -17.843554 0.000002 -3.141772 -0.000335 -0.149537
    12 -8.574547 -18.052130 -6.027750 -2.691581 0.065754 -0.135650
    13 3.861284 24.024183 -0.000002 -0.000090 -0.000158 -0.070874
    14 -9.712905 -14.946655 -13.294335 -1.345564 0.641381 -1.051216
    15 13.142379 -0.000002 -0.000001 1.219074 -0.614674 -0.343905
    16 27.970139 -0.000001 0.000000 0.000000 0.000000 -2.333619
    17 29.133217 0.000002 0.000002 3.213209 0.322457 -0.454137
    18 -9.729550 -14.755046 9.830598 1.172447 -0.703755 -0.761750
    19 15.733538 0.000002 0.000000 2.025533 0.226680 -0.279068
    20 27.970112 0.000000 -0.000001 0.000000 0.000000 2.233884
    21 27.680090 0.000001 0.000002 -0.217042 0.194694 0.507706
    22 4.993010 -23.538506 -17.871185 -0.420346 0.012345 -0.183765
    23 16.172516 -0.259539 -0.000005 0.000000 0.000000 0.000000
    24 4.842330 4.476890 21.502810 -0.388350 0.000470 -0.000911
    25 4.842328 4.356966 -21.466049 -0.380859 0.007958 -3.142467
    26 4.976429 -23.588661 18.357018 -2.879316 -0.050954 -0.165836
    27 16.172510 -0.259540 -0.000003 0.000000 0.000000 0.000000
    28 9.501565 17.496380 -7.753404 0.374569 0.040424 3.033428
    29 9.501565 17.651758 9.218251 0.375516 0.031424 -0.100807
end
