"UnlitGeneric"
{
	//"$basetexturetransform" "center 0 0 scale 2 2 rotate 0 translate 0 0"
	"$spriteorientation" "vp_parallel"
	"$spriteorigin" "[ 0.50 0.50 ]"
	"$baseTexture" "sprites\hud/clips_bullets"
	"$translucent"	"1"
	"$ignorez"	"1"
}
