// Choreo version 1
actor "Miku"
{
  channel "Audio"
  {
    event speak "miku.task4-13"
    {
      time 0.000000 3.927166
      param "oc_moegladosfactory\voice\task4-13_dummy.wav"
      fixedlength
      cctype "cc_master"
      cctoken ""
    }
  }
  channel "Expressions"
  {
    event expression "shotgunsmile"
    {
      time 0.000000 3.927000
      param "emotions_alyx"
      param2 "shotgunsmile"
    }
  }
  channel "Flex"
  {
    event lookat "MikuCam"
    {
      time 0.000000 3.927000
      param "MikuCam"
    }
  }
  channel "Animation"
  {
  }
  faceposermodel "models\miku.mdl"
}

mapname "D:\Program Files (x86)\Steam\steamapps\sourcemods\obsidian\maps\oc_moegladosfactory_v2_ver_b.bsp"
scalesettings
{
  "CChoreoView" "96"
  "RampTool" "100"
  "ExpressionTool" "100"
  "GestureTool" "100"
  "SceneRampTool" "100"
}
fps 60
snap off
ignorePhonemes off
