"unlitgeneric"
{
	"$basetexture"	"effects\filmgrain_fug"
//	"$alpha"	"0"
	"$translucent" 	"1"
	"$basetexturetransform" "center .5 .5 scale 3.2 2.0 rotate 0 translate 0 0"
	"$additive" 	"1"
//	"$znearer"	"1"
//	"$ignorez"	"1"
//	"$mod2x"	"1"
//	"$color" 	".2"	//"[.1 .1 .1]"
//	"$frame"		0
//	"$tempvar_0"		0
//	"$tempvar_1"		0
//	"$tempvar_2"		0
//	"$scale"		0.3 
//	"$sine_0"		0
//	"$scrollangle"		0
	"$scalevar_0"		"[3.2 2.0]"

	"Proxies"
	{
//		"Empty"
//		{
//		//"GaussianNoise"
//
//			"UniformNoise"
//			{
//				"minVal"	"0"
//				"maxVal"	"5.9"
//				"resultVar"	"$tempvar_0"
//			}
//
//			"Abs"
//			{
//				"srcVar1"	"$tempvar_0"
//				"resultVar"	"$tempvar_1"
//			}
//
//			"Clamp"
//			{
//				"srcVar1"	"$tempvar_1"
//				"min"		"0"
//				"max"		"5"
//				"resultVar"	"$tempvar_2"
//			}
//
//			"Empty"
//			{
//				"ToggleTexture"
//				{
//					"toggleTextureVar"		"$frame"
//					"toggleTextureFrameNumVar"	"$tempvar_1"
//					"toggleShouldWrap" 		"0"
//				}
//			}
//
//			"Equals"
//			{
//				"srcVar1"	"$tempvar_2"
//				"resultVar"	"$frame"
//			}
//		}
//	
//		"Sine"
//		{
//			"sineperiod"		30
//			"sinemin"		90
//			"sinemax"		180
//			"resultvar"		"$sine_0"		
//		}
//
//
//		
//		"Abs"
//		{
//			"srcVar1"	"$sine_0"
//			"resultVar"	"$scrollangle"
//		}
//

		"TextureScroll"
		{
			"TextureScrollVar"		"$baseTextureTransform"
			"TextureScrollRate"		0.03
			"TextureScrollAngle" 		67	//"$scrollangle"
		}



		"TextureTransform"
		{
			"scaleVar"		"$scalevar_0"
		//	"translateVar" 		"[0 0]"
			"resultvar"		"$basetextureTransform"
		}


//				"LinearRamp"
//		{
//			"rate"		2
//			"initialvalue"		0
//			"resultvar"		"$scrollangle"		
//		}
//

		"AnimatedTexture"
		{
			"animatedTextureVar" 		"$basetexture"
			"animatedTextureFrameNumVar"	"$frame"
			"animatedTextureFrameRate"	18
		}

	}
}