"LightmappedGeneric"
{	
"$baseTexture" "cs_siege_pcs/VehicleTv"
"Proxies"
	{
	"AnimatedTexture"
		{
		"animatedTextureVar" "$basetexture"
		"animatedTextureFrameNumVar" "$frame"
		"animatedTextureFrameRate" "10"
		}
	}
"$frame" "2"

} 