"VertexLitGeneric"
{
	"$baseTexture" "models\weapons\oc_back\hecum4/m4m203"
	"$bumpmap" "models\weapons\oc_back\hecum4/m4m203_normal"
	//"$envmap" "env_cubemap"
	//"$normalmapalphaenvmapmask" "1"

	"$phong" "1"
	"$phongexponent" "20"
	"$phongboost"	"2"
	"$phongfresnelranges"	"[.4 0.8 1.5]"
}
