"VertexLitGeneric"
{
	"$basetexture" "models\maps\oc_back\securitystation/securitystation_corner_screens"
	"$model" "1"
	"$envmap" "env_cubemap"
	"$envmaptint" "[ .6 .6 .6 ]"
	"$selfillum" "1"
	"Proxies"
	{
		"Sine"
		{
			"resultVar" "$selfillumtint"
			"sineperiod" "0.01"
			"sinemin"	"0.85"
			"sinemax" "1"
		}
	}
}
