"WorldVertexTransition"
{
	"$basetexture" "maps\oc_back/faf_dirtground2"
	"$basetexture2" "maps\oc_back/rp_rockwall001"
	"%tooltexture" "maps\oc_back/faf_dirtground2"
	"$bumpmap" "maps\oc_back/faf_dirtground2_normal"
	"$bumpmap2" "maps\oc_back/st_rockcliff003_normal"
 	"$basetexturetransform" "center .5 .5 scale 2 2 rotate 0  translate 0 0"

	"$surfaceprop" "dirt"
	"$surfaceprop2" "rock"
	"%keywords" "bms"
}