"LightMappedGeneric"
{
	"$baseTexture" "maps\oc_back\ca1x_w"
	"$bumpmap" "maps\oc_back\ca1x_w_ssbump"
	"$ssbump"	"1"

//	"$envmap" "env_cubemap"
//	"$normalmapalphaenvmapmask" 1
//	"$envmaptint" "[.05 .05 .05]"
//	"$envmapcontrast"	.1

        "$detail" "maps\oc_back\bm_metal_detail_01"
	"$detailscale" "8"
	"$detailblendfactor" 0.8
	"$detailblendmode" 0

	"%keywords" "bms,Jenn0"
}