LightmappedGeneric
{
	"$basetexture"	"maps\oc_back\CSREV_wide_metaldoor_01"
	"$envmapmask" "maps\oc_back\CSREV_wide_metaldoor_01_ref"
	"$envmap" "env_cubemap"
	"$surfaceprop" "metal"

        "$detail" "maps\oc_back\bm_metal_detail_01"
	"$detailscale" "7"
	"$detailblendfactor" 0.8
	"$detailblendmode" 0

	"%keywords" "bms, Jenn0, bms"

}
