"VertexLitGeneric"
{
	"$basetexture" "Shadowsand/Puzzler/Flash"
"Proxies"
{
"AnimatedTexture"
{
"animatedTextureVar" "$basetexture"
"animatedTextureFrameNumVar" "$frame"
"animatedTextureFrameRate" "12"
}
}
"$surfaceprop" "metal"
"$frame" "0"
}