"LightmappedGeneric"
{
	"$basetexture" "Shadowsand/Puzzler/Part3Hub7"
	"$surfaceprop" "metal"
	"$frame" 0
  	"Proxies" 
  	{ 
   		"ToggleTexture"
   		{
    			"toggleTextureVar" "$baseTexture"
    			"toggleTextureFrameNumVar" "$frame"
   	 		"toggleTextureShouldWrap" "0"
  		 } 	
  	} 
 }