// Created by Crowbar 0.74
version 1
nodes
  0 "Ichthyosaur.Body_Cnl_Ori_Parent" -1
  1 "Ichthyosaur.Body_Bone" 0
  2 "Ichthyosaur.TailBone1" 1
  3 "Ichthyosaur.TailBone2" 2
  4 "Ichthyosaur.TailBone3" 3
  5 "Ichthyosaur.TailBone4" 4
  6 "Ichthyosaur.TailBone5" 5
  7 "Ichthyosaur.TailBone6" 6
  8 "Ichthyosaur.TailBone_7" 7
  9 "Ichthyosaur.Head_Bone" 1
  10 "Ichthyosaur.Hair_BoneR" 9
  11 "Ichthyosaur.Hair_BoneMid" 9
  12 "Ichthyosaur.Hair_BoneL" 9
  13 "Ichthyosaur.Jaw_Bone" 9
  14 "Ichthyosaur.ClavR_Bone" 1
  15 "Ichthyosaur.UpperArmR_Bone" 14
  16 "Ichthyosaur.ForeArmR_Bone" 15
  17 "Ichthyosaur.ClawR" 16
  18 "Ichthyosaur.ClavL_Bone" 1
  19 "Ichthyosaur.UpperArmL_Bone" 18
  20 "Ichthyosaur.ForeArmL_Bone" 19
  21 "Ichthyosaur.ClawR1" 20
  22 "Ichthyosaur.FinR1" 1
  23 "Ichthyosaur.FinR2" 22
  24 "Ichthyosaur.Gills_L" 1
  25 "Ichthyosaur.Gills_R" 1
  26 "Ichthyosaur.FinL1" 1
  27 "Ichthyosaur.FinL2" 26
  28 "Ichthyosaur.Fin_Dorsal_R1" 1
  29 "Ichthyosaur.Fin_Dorsal_L1" 1
end
skeleton
  time 0
    0 0.295760 -14.106149 3.671319 3.141592 0.000000 -1.570796
    1 0.000000 0.000000 0.000000 -1.570797 0.000000 -3.141592
    2 15.612206 -4.113904 -0.000001 -1.570796 0.000000 -0.035726
    3 28.653730 0.000000 0.000000 0.000000 -0.035720 0.018535
    4 28.915051 0.000000 0.000000 0.000000 -0.000012 -0.018523
    5 26.681271 0.000000 0.000000 0.000000 0.000000 0.000000
    6 25.727402 0.000000 0.000000 0.000000 0.000000 0.000000
    7 24.309021 0.000000 0.000000 0.000000 0.000000 0.000000
    8 18.553192 -0.000001 -0.000002 0.000000 0.000000 0.000000
    9 -14.505168 7.477315 0.000001 3.141592 0.000000 0.000000
    10 -8.574543 -15.469650 15.618923 -2.692195 -0.065221 -3.007279
    11 -8.865223 -17.843554 0.000002 -3.141592 0.000000 -0.149226
    12 -8.574547 -18.052130 -6.027750 -2.692195 0.065220 -0.134314
    13 3.861284 24.024183 -0.000002 0.000000 0.000000 -0.126537
    14 -9.712905 -14.946655 -13.294335 -1.768240 0.743288 -1.872663
    15 13.142379 -0.000002 -0.000001 1.539321 -0.270777 -0.626883
    16 27.970139 -0.000001 0.000000 0.000000 0.000000 -1.739161
    17 29.133217 0.000002 0.000002 2.790510 0.155802 -1.696908
    18 -9.729550 -14.755046 9.830598 1.761420 -0.809249 -1.716607
    19 15.733538 0.000002 0.000000 1.625546 0.027114 -0.544345
    20 27.970112 0.000000 -0.000001 0.000000 0.000000 1.697638
    21 27.680090 0.000001 0.000002 0.091287 0.330947 1.678512
    22 4.993010 -23.538506 -17.871185 -0.419714 0.012237 -0.182351
    23 16.172516 -0.259539 -0.000005 0.000000 0.000000 0.000000
    24 4.842330 4.476890 21.502810 -0.387463 0.000000 0.000000
    25 4.842328 4.356966 -21.466049 -0.387463 0.000000 -3.141592
    26 4.976429 -23.588661 18.357018 -2.881018 -0.043545 -0.157447
    27 16.172510 -0.259540 -0.000003 0.000000 0.000000 0.000000
    28 9.501565 17.496380 -7.753404 0.374425 0.032143 3.040223
    29 9.501565 17.651758 9.218251 0.374425 0.032143 -0.101370
end
triangles
  phy
    1 -11.063047 -68.078698 12.169557 -0.897287 0.152089 0.414422 0 0
    1 -11.063027 -68.078684 -13.924954 -0.789865 0.426066 -0.441114 0 0
    1 10.506969 -68.078695 -13.924929 -0.845903 -0.503555 -0.175729 0 0
  phy
    1 -11.063047 -68.078698 12.169557 -0.897287 0.152089 0.414422 0 0
    1 10.506969 -68.078695 -13.924929 -0.845903 -0.503555 -0.175729 0 0
    1 10.506953 -68.078709 12.169576 -0.913446 -0.313669 0.259282 0 0
  phy
    1 10.506953 -68.078709 12.169576 -0.913446 -0.313669 0.259282 0 0
    1 24.489219 -51.842102 26.361118 -0.357940 -0.816906 0.452264 0 0
    1 -11.063047 -68.078698 12.169557 -0.897287 0.152089 0.414422 0 0
  phy
    1 24.489219 -51.842102 26.361118 -0.357940 -0.816906 0.452264 0 0
    1 -25.045341 -51.842096 26.361059 -0.242876 0.919801 0.308186 0 0
    1 -11.063047 -68.078698 12.169557 -0.897287 0.152089 0.414422 0 0
  phy
    1 -11.063027 -68.078684 -13.924954 -0.789865 0.426066 -0.441114 0 0
    1 -11.063047 -68.078698 12.169557 -0.897287 0.152089 0.414422 0 0
    1 -25.045341 -51.842096 26.361059 -0.242876 0.919801 0.308186 0 0
  phy
    1 7.058162 -35.701025 35.432792 -0.287077 -0.081899 0.954400 0 0
    1 -8.794622 -17.046615 35.432792 0.149959 0.189396 0.970382 0 0
    1 -8.794631 -35.701005 35.432783 -0.162843 0.191622 0.967865 0 0
  phy
    1 7.058176 -17.046623 35.432802 0.061834 -0.322119 0.944678 0 0
    1 -8.794622 -17.046615 35.432792 0.149959 0.189396 0.970382 0 0
    1 7.058162 -35.701025 35.432792 -0.287077 -0.081899 0.954400 0 0
  phy
    1 -8.794631 -35.701005 35.432783 -0.162843 0.191622 0.967865 0 0
    1 -25.045341 -51.842096 26.361059 -0.242876 0.919801 0.308186 0 0
    1 7.058162 -35.701025 35.432792 -0.287077 -0.081899 0.954400 0 0
  phy
    1 -25.045341 -51.842096 26.361059 -0.242876 0.919801 0.308186 0 0
    1 24.489219 -51.842102 26.361118 -0.357940 -0.816906 0.452264 0 0
    1 7.058162 -35.701025 35.432792 -0.287077 -0.081899 0.954400 0 0
  phy
    1 7.058162 -35.701025 35.432792 -0.287077 -0.081899 0.954400 0 0
    1 24.489219 -51.842102 26.361118 -0.357940 -0.816906 0.452264 0 0
    1 7.058176 -17.046623 35.432802 0.061834 -0.322119 0.944678 0 0
  phy
    1 10.506969 -68.078695 -13.924929 -0.845903 -0.503555 -0.175729 0 0
    1 -11.063027 -68.078684 -13.924954 -0.789865 0.426066 -0.441114 0 0
    1 24.489302 -46.177793 -30.840007 -0.210121 -0.854789 -0.474537 0 0
  phy
    1 24.489302 -46.177793 -30.840007 -0.210121 -0.854789 -0.474537 0 0
    1 -11.063027 -68.078684 -13.924954 -0.789865 0.426066 -0.441114 0 0
    1 -25.045302 -46.177759 -30.840038 -0.194423 0.533015 -0.823465 0 0
  phy
    1 -11.063027 -68.078684 -13.924954 -0.789865 0.426066 -0.441114 0 0
    1 -25.045341 -51.842096 26.361059 -0.242876 0.919801 0.308186 0 0
    1 -25.045302 -46.177759 -30.840038 -0.194423 0.533015 -0.823465 0 0
  phy
    1 -8.794622 -17.046615 35.432792 0.149959 0.189396 0.970382 0 0
    1 -25.045341 -51.842096 26.361059 -0.242876 0.919801 0.308186 0 0
    1 -8.794631 -35.701005 35.432783 -0.162843 0.191622 0.967865 0 0
  phy
    1 7.058176 -17.046623 35.432802 0.061834 -0.322119 0.944678 0 0
    1 24.489303 12.086468 26.361132 0.609174 -0.736601 0.293812 0 0
    1 -8.794622 -17.046615 35.432792 0.149959 0.189396 0.970382 0 0
  phy
    1 24.489219 -51.842102 26.361118 -0.357940 -0.816906 0.452264 0 0
    1 24.489303 12.086468 26.361132 0.609174 -0.736601 0.293812 0 0
    1 7.058176 -17.046623 35.432802 0.061834 -0.322119 0.944678 0 0
  phy
    1 24.489302 -46.177793 -30.840007 -0.210121 -0.854789 -0.474537 0 0
    1 24.489219 -51.842102 26.361118 -0.357940 -0.816906 0.452264 0 0
    1 10.506969 -68.078695 -13.924929 -0.845903 -0.503555 -0.175729 0 0
  phy
    1 24.489219 -51.842102 26.361118 -0.357940 -0.816906 0.452264 0 0
    1 10.506953 -68.078709 12.169576 -0.913446 -0.313669 0.259282 0 0
    1 10.506969 -68.078695 -13.924929 -0.845903 -0.503555 -0.175729 0 0
  phy
    1 -8.794622 -17.046615 35.432792 0.149959 0.189396 0.970382 0 0
    1 -25.045294 12.086504 26.361099 0.555793 0.717298 0.420211 0 0
    1 -25.045341 -51.842096 26.361059 -0.242876 0.919801 0.308186 0 0
  phy
    1 -8.794622 -17.046615 35.432792 0.149959 0.189396 0.970382 0 0
    1 24.489303 12.086468 26.361132 0.609174 -0.736601 0.293812 0 0
    1 -25.045294 12.086504 26.361099 0.555793 0.717298 0.420211 0 0
  phy
    1 -25.045302 -46.177759 -30.840038 -0.194423 0.533015 -0.823465 0 0
    1 -25.045341 -51.842096 26.361059 -0.242876 0.919801 0.308186 0 0
    1 -25.045260 12.086542 -30.839998 0.599688 0.739659 -0.305417 0 0
  phy
    1 -25.045341 -51.842096 26.361059 -0.242876 0.919801 0.308186 0 0
    1 -25.045294 12.086504 26.361099 0.555793 0.717298 0.420211 0 0
    1 -25.045260 12.086542 -30.839998 0.599688 0.739659 -0.305417 0 0
  phy
    1 24.489302 -46.177793 -30.840007 -0.210121 -0.854789 -0.474537 0 0
    1 24.489303 12.086468 26.361132 0.609174 -0.736601 0.293812 0 0
    1 24.489219 -51.842102 26.361118 -0.357940 -0.816906 0.452264 0 0
  phy
    1 24.489302 -46.177793 -30.840007 -0.210121 -0.854789 -0.474537 0 0
    1 24.489344 12.086505 -30.839967 0.391223 -0.460170 -0.796987 0 0
    1 24.489303 12.086468 26.361132 0.609174 -0.736601 0.293812 0 0
  phy
    1 24.489302 -46.177793 -30.840007 -0.210121 -0.854789 -0.474537 0 0
    1 -25.045302 -46.177759 -30.840038 -0.194423 0.533015 -0.823465 0 0
    1 24.489344 12.086505 -30.839967 0.391223 -0.460170 -0.796987 0 0
  phy
    1 24.489344 12.086505 -30.839967 0.391223 -0.460170 -0.796987 0 0
    1 -25.045302 -46.177759 -30.840038 -0.194423 0.533015 -0.823465 0 0
    1 -25.045260 12.086542 -30.839998 0.599688 0.739659 -0.305417 0 0
  phy
    1 24.489303 12.086468 26.361132 0.609174 -0.736601 0.293812 0 0
    1 -25.045260 12.086542 -30.839998 0.599688 0.739659 -0.305417 0 0
    1 -25.045294 12.086504 26.361099 0.555793 0.717298 0.420211 0 0
  phy
    1 24.489344 12.086505 -30.839967 0.391223 -0.460170 -0.796987 0 0
    1 -25.045260 12.086542 -30.839998 0.599688 0.739659 -0.305417 0 0
    1 24.489303 12.086468 26.361132 0.609174 -0.736601 0.293812 0 0
  phy
    18 26.374712 -10.241907 -21.157996 0.466870 0.363424 0.806198 0 0
    18 26.374717 -34.256309 -21.157969 0.880387 -0.439095 0.179205 0 0
    18 14.410913 -10.241913 -23.584507 0.495272 0.412332 -0.764649 0 0
  phy
    18 26.374717 -34.256309 -21.157969 0.880387 -0.439095 0.179205 0 0
    18 14.410918 -34.256317 -23.584480 0.289897 -0.207975 -0.934187 0 0
    18 14.410913 -10.241913 -23.584507 0.495272 0.412332 -0.764649 0 0
  phy
    18 26.374712 -10.241907 -21.157996 0.466870 0.363424 0.806198 0 0
    18 14.410913 -10.241913 -23.584507 0.495272 0.412332 -0.764649 0 0
    18 15.714194 -10.241893 -6.092708 -0.418659 0.600905 0.680910 0 0
  phy
    18 15.714194 -10.241893 -6.092708 -0.418659 0.600905 0.680910 0 0
    18 14.410913 -10.241913 -23.584507 0.495272 0.412332 -0.764649 0 0
    18 5.832903 -10.241905 -14.912220 -0.777565 0.057922 -0.626129 0 0
  phy
    18 14.410913 -10.241913 -23.584507 0.495272 0.412332 -0.764649 0 0
    18 14.410918 -34.256317 -23.584480 0.289897 -0.207975 -0.934187 0 0
    18 5.832903 -10.241905 -14.912220 -0.777565 0.057922 -0.626129 0 0
  phy
    18 26.374712 -10.241907 -21.157996 0.466870 0.363424 0.806198 0 0
    18 15.714199 -34.256294 -6.092681 -0.407872 -0.196773 0.891583 0 0
    18 26.374717 -34.256309 -21.157969 0.880387 -0.439095 0.179205 0 0
  phy
    18 26.374712 -10.241907 -21.157996 0.466870 0.363424 0.806198 0 0
    18 15.714194 -10.241893 -6.092708 -0.418659 0.600905 0.680910 0 0
    18 15.714199 -34.256294 -6.092681 -0.407872 -0.196773 0.891583 0 0
  phy
    18 15.714194 -10.241893 -6.092708 -0.418659 0.600905 0.680910 0 0
    18 5.832903 -10.241905 -14.912220 -0.777565 0.057922 -0.626129 0 0
    18 15.714199 -34.256294 -6.092681 -0.407872 -0.196773 0.891583 0 0
  phy
    18 15.714199 -34.256294 -6.092681 -0.407872 -0.196773 0.891583 0 0
    18 5.832903 -10.241905 -14.912220 -0.777565 0.057922 -0.626129 0 0
    18 5.832908 -34.256309 -14.912193 -0.516217 -0.750359 -0.412895 0 0
  phy
    18 26.374717 -34.256309 -21.157969 0.880387 -0.439095 0.179205 0 0
    18 5.832908 -34.256309 -14.912193 -0.516217 -0.750359 -0.412895 0 0
    18 14.410918 -34.256317 -23.584480 0.289897 -0.207975 -0.934187 0 0
  phy
    18 26.374717 -34.256309 -21.157969 0.880387 -0.439095 0.179205 0 0
    18 15.714199 -34.256294 -6.092681 -0.407872 -0.196773 0.891583 0 0
    18 5.832908 -34.256309 -14.912193 -0.516217 -0.750359 -0.412895 0 0
  phy
    18 14.410918 -34.256317 -23.584480 0.289897 -0.207975 -0.934187 0 0
    18 5.832908 -34.256309 -14.912193 -0.516217 -0.750359 -0.412895 0 0
    18 5.832903 -10.241905 -14.912220 -0.777565 0.057922 -0.626129 0 0
  phy
    19 14.655721 -34.318399 -23.924176 -0.168995 -0.741259 0.649597 0 0
    19 21.792837 -31.764816 -43.513865 0.566324 -0.490057 0.662662 0 0
    19 33.085638 -31.764814 -43.513850 0.211406 0.905890 0.366976 0 0
  phy
    19 33.085638 -31.764814 -43.513850 0.211406 0.905890 0.366976 0 0
    19 26.347117 -34.318392 -21.482264 -0.653584 0.719062 0.236173 0 0
    19 14.655721 -34.318399 -23.924176 -0.168995 -0.741259 0.649597 0 0
  phy
    19 33.085638 -31.764814 -43.513850 0.211406 0.905890 0.366976 0 0
    19 26.347113 -12.933897 -21.347987 -0.175666 0.850087 -0.496481 0 0
    19 26.347117 -34.318392 -21.482264 -0.653584 0.719062 0.236173 0 0
  phy
    19 26.347113 -12.933897 -21.347987 -0.175666 0.850087 -0.496481 0 0
    19 33.085638 -31.764814 -43.513850 0.211406 0.905890 0.366976 0 0
    19 33.085638 -19.190122 -47.542158 0.577523 0.317318 -0.752181 0 0
  phy
    19 21.792837 -31.764816 -43.513865 0.566324 -0.490057 0.662662 0 0
    19 33.085638 -19.190122 -47.542158 0.577523 0.317318 -0.752181 0 0
    19 33.085638 -31.764814 -43.513850 0.211406 0.905890 0.366976 0 0
  phy
    19 22.780038 -19.190124 -47.542172 0.271528 -0.961847 -0.033513 0 0
    19 21.792837 -31.764816 -43.513865 0.566324 -0.490057 0.662662 0 0
    19 14.655721 -34.318399 -23.924176 -0.168995 -0.741259 0.649597 0 0
  phy
    19 14.655721 -34.318399 -23.924176 -0.168995 -0.741259 0.649597 0 0
    19 14.650078 -10.121714 -23.773418 -0.417753 -0.728176 -0.543362 0 0
    19 22.780038 -19.190124 -47.542172 0.271528 -0.961847 -0.033513 0 0
  phy
    19 22.780038 -19.190124 -47.542172 0.271528 -0.961847 -0.033513 0 0
    19 33.085638 -19.190122 -47.542158 0.577523 0.317318 -0.752181 0 0
    19 21.792837 -31.764816 -43.513865 0.566324 -0.490057 0.662662 0 0
  phy
    19 33.085638 -19.190122 -47.542158 0.577523 0.317318 -0.752181 0 0
    19 22.780038 -19.190124 -47.542172 0.271528 -0.961847 -0.033513 0 0
    19 14.650078 -10.121714 -23.773418 -0.417753 -0.728176 -0.543362 0 0
  phy
    19 26.347117 -34.318392 -21.482264 -0.653584 0.719062 0.236173 0 0
    19 26.347113 -12.933897 -21.347987 -0.175666 0.850087 -0.496481 0 0
    19 14.650078 -10.121714 -23.773418 -0.417753 -0.728176 -0.543362 0 0
  phy
    19 26.347113 -12.933897 -21.347987 -0.175666 0.850087 -0.496481 0 0
    19 33.085638 -19.190122 -47.542158 0.577523 0.317318 -0.752181 0 0
    19 14.650078 -10.121714 -23.773418 -0.417753 -0.728176 -0.543362 0 0
  phy
    19 14.655721 -34.318399 -23.924176 -0.168995 -0.741259 0.649597 0 0
    19 26.347117 -34.318392 -21.482264 -0.653584 0.719062 0.236173 0 0
    19 14.650078 -10.121714 -23.773418 -0.417753 -0.728176 -0.543362 0 0
  phy
    14 -14.894498 -34.256276 -23.584518 0.549669 0.214671 -0.807330 0 0
    14 -14.894488 -10.241868 -23.584514 0.282945 -0.668209 -0.688069 0 0
    14 -6.316590 -10.241876 -14.912214 -0.755269 -0.030052 -0.654726 0 0
  phy
    14 -6.316600 -34.256282 -14.912217 -0.600671 0.494938 -0.627878 0 0
    14 -14.894498 -34.256276 -23.584518 0.549669 0.214671 -0.807330 0 0
    14 -6.316590 -10.241876 -14.912214 -0.755269 -0.030052 -0.654726 0 0
  phy
    14 -14.894498 -34.256276 -23.584518 0.549669 0.214671 -0.807330 0 0
    14 -26.521292 -10.241862 -20.285115 0.657248 -0.376465 0.652916 0 0
    14 -14.894488 -10.241868 -23.584514 0.282945 -0.668209 -0.688069 0 0
  phy
    14 -14.894498 -34.256276 -23.584518 0.549669 0.214671 -0.807330 0 0
    14 -26.521302 -34.256271 -20.285119 0.750887 0.275625 0.600167 0 0
    14 -26.521292 -10.241862 -20.285115 0.657248 -0.376465 0.652916 0 0
  phy
    14 -14.894498 -34.256276 -23.584518 0.549669 0.214671 -0.807330 0 0
    14 -6.316600 -34.256282 -14.912217 -0.600671 0.494938 -0.627878 0 0
    14 -16.197803 -34.256279 -6.092715 -0.401773 0.444575 0.800582 0 0
  phy
    14 -14.894498 -34.256276 -23.584518 0.549669 0.214671 -0.807330 0 0
    14 -16.197803 -34.256279 -6.092715 -0.401773 0.444575 0.800582 0 0
    14 -26.521302 -34.256271 -20.285119 0.750887 0.275625 0.600167 0 0
  phy
    14 -14.894488 -10.241868 -23.584514 0.282945 -0.668209 -0.688069 0 0
    14 -26.521292 -10.241862 -20.285115 0.657248 -0.376465 0.652916 0 0
    14 -16.197794 -10.241872 -6.092712 -0.538242 -0.469779 0.699717 0 0
  phy
    14 -16.197794 -10.241872 -6.092712 -0.538242 -0.469779 0.699717 0 0
    14 -6.316590 -10.241876 -14.912214 -0.755269 -0.030052 -0.654726 0 0
    14 -14.894488 -10.241868 -23.584514 0.282945 -0.668209 -0.688069 0 0
  phy
    14 -16.197794 -10.241872 -6.092712 -0.538242 -0.469779 0.699717 0 0
    14 -26.521292 -10.241862 -20.285115 0.657248 -0.376465 0.652916 0 0
    14 -16.197803 -34.256279 -6.092715 -0.401773 0.444575 0.800582 0 0
  phy
    14 -16.197794 -10.241872 -6.092712 -0.538242 -0.469779 0.699717 0 0
    14 -16.197803 -34.256279 -6.092715 -0.401773 0.444575 0.800582 0 0
    14 -6.316590 -10.241876 -14.912214 -0.755269 -0.030052 -0.654726 0 0
  phy
    14 -16.197803 -34.256279 -6.092715 -0.401773 0.444575 0.800582 0 0
    14 -6.316600 -34.256282 -14.912217 -0.600671 0.494938 -0.627878 0 0
    14 -6.316590 -10.241876 -14.912214 -0.755269 -0.030052 -0.654726 0 0
  phy
    14 -26.521292 -10.241862 -20.285115 0.657248 -0.376465 0.652916 0 0
    14 -26.521302 -34.256271 -20.285119 0.750887 0.275625 0.600167 0 0
    14 -16.197803 -34.256279 -6.092715 -0.401773 0.444575 0.800582 0 0
  phy
    15 -14.796901 -34.318381 -23.924226 -0.341757 -0.750466 -0.565688 0 0
    15 -21.934098 -31.764771 -43.513937 0.433303 -0.507959 -0.744464 0 0
    15 -22.921192 -19.190067 -47.542234 0.498404 -0.866388 -0.031053 0 0
  phy
    15 -22.921192 -19.190067 -47.542234 0.498404 -0.866388 -0.031053 0 0
    15 -14.791409 -10.121860 -23.773891 0.028038 -0.795243 0.605643 0 0
    15 -14.796901 -34.318381 -23.924226 -0.341757 -0.750466 -0.565688 0 0
  phy
    15 -22.921192 -19.190067 -47.542234 0.498404 -0.866388 -0.031053 0 0
    15 -21.934098 -31.764771 -43.513937 0.433303 -0.507959 -0.744464 0 0
    15 -33.226797 -31.764766 -43.513940 0.177026 0.882784 -0.435149 0 0
  phy
    15 -33.226797 -31.764766 -43.513940 0.177026 0.882784 -0.435149 0 0
    15 -33.226792 -19.190062 -47.542238 0.406574 0.449232 0.795543 0 0
    15 -22.921192 -19.190067 -47.542234 0.498404 -0.866388 -0.031053 0 0
  phy
    15 -22.921192 -19.190067 -47.542234 0.498404 -0.866388 -0.031053 0 0
    15 -33.226792 -19.190062 -47.542238 0.406574 0.449232 0.795543 0 0
    15 -14.791409 -10.121860 -23.773891 0.028038 -0.795243 0.605643 0 0
  phy
    15 -14.796901 -34.318381 -23.924226 -0.341757 -0.750466 -0.565688 0 0
    15 -33.226797 -31.764766 -43.513940 0.177026 0.882784 -0.435149 0 0
    15 -21.934098 -31.764771 -43.513937 0.433303 -0.507959 -0.744464 0 0
  phy
    15 -33.226797 -31.764766 -43.513940 0.177026 0.882784 -0.435149 0 0
    15 -14.796901 -34.318381 -23.924226 -0.341757 -0.750466 -0.565688 0 0
    15 -26.365501 -34.318374 -20.484423 -0.497736 0.813483 -0.300839 0 0
  phy
    15 -33.226797 -31.764766 -43.513940 0.177026 0.882784 -0.435149 0 0
    15 -26.365494 -12.933868 -20.350118 -0.477042 0.736471 0.479626 0 0
    15 -33.226792 -19.190062 -47.542238 0.406574 0.449232 0.795543 0 0
  phy
    15 -26.365494 -12.933868 -20.350118 -0.477042 0.736471 0.479626 0 0
    15 -33.226797 -31.764766 -43.513940 0.177026 0.882784 -0.435149 0 0
    15 -26.365501 -34.318374 -20.484423 -0.497736 0.813483 -0.300839 0 0
  phy
    15 -26.365494 -12.933868 -20.350118 -0.477042 0.736471 0.479626 0 0
    15 -14.796901 -34.318381 -23.924226 -0.341757 -0.750466 -0.565688 0 0
    15 -14.791409 -10.121860 -23.773891 0.028038 -0.795243 0.605643 0 0
  phy
    15 -14.796901 -34.318381 -23.924226 -0.341757 -0.750466 -0.565688 0 0
    15 -26.365494 -12.933868 -20.350118 -0.477042 0.736471 0.479626 0 0
    15 -26.365501 -34.318374 -20.484423 -0.497736 0.813483 -0.300839 0 0
  phy
    15 -14.791409 -10.121860 -23.773891 0.028038 -0.795243 0.605643 0 0
    15 -33.226792 -19.190062 -47.542238 0.406574 0.449232 0.795543 0 0
    15 -26.365494 -12.933868 -20.350118 -0.477042 0.736471 0.479626 0 0
  phy
    16 -22.878299 -21.487959 -54.927021 -0.665276 -0.450575 0.595307 0 0
    16 -33.241698 -21.487956 -54.927027 -0.223821 0.830806 0.509574 0 0
    16 -33.241698 -19.235656 -47.693524 -0.552235 0.569404 -0.608946 0 0
  phy
    16 -22.878301 -19.235660 -47.693523 -0.083707 -0.821243 -0.564406 0 0
    16 -22.878299 -21.487959 -54.927021 -0.665276 -0.450575 0.595307 0 0
    16 -33.241698 -19.235656 -47.693524 -0.552235 0.569404 -0.608946 0 0
  phy
    16 -22.878299 -21.487959 -54.927021 -0.665276 -0.450575 0.595307 0 0
    16 -22.878301 -19.235660 -47.693523 -0.083707 -0.821243 -0.564406 0 0
    16 -18.006802 -56.972778 -80.117034 0.091641 -0.990231 -0.105095 0 0
  phy
    16 -22.878299 -21.487959 -54.927021 -0.665276 -0.450575 0.595307 0 0
    16 -21.401601 -56.972777 -80.117036 0.158296 0.779488 0.606087 0 0
    16 -33.241698 -21.487956 -54.927027 -0.223821 0.830806 0.509574 0 0
  phy
    16 -18.006802 -56.972778 -80.117034 0.091641 -0.990231 -0.105095 0 0
    16 -21.401601 -56.972777 -80.117036 0.158296 0.779488 0.606087 0 0
    16 -22.878299 -21.487959 -54.927021 -0.665276 -0.450575 0.595307 0 0
  phy
    16 -19.759114 -57.547172 -35.797114 0.397002 -0.819466 -0.413357 0 0
    16 -21.401601 -56.972777 -80.117036 0.158296 0.779488 0.606087 0 0
    16 -18.006802 -56.972778 -80.117034 0.091641 -0.990231 -0.105095 0 0
  phy
    16 -19.759114 -57.547172 -35.797114 0.397002 -0.819466 -0.413357 0 0
    16 -33.241713 -57.547166 -35.797115 0.126362 0.988148 -0.087154 0 0
    16 -21.401601 -56.972777 -80.117036 0.158296 0.779488 0.606087 0 0
  phy
    16 -22.878301 -19.235660 -47.693523 -0.083707 -0.821243 -0.564406 0 0
    16 -19.759114 -57.547172 -35.797114 0.397002 -0.819466 -0.413357 0 0
    16 -18.006802 -56.972778 -80.117034 0.091641 -0.990231 -0.105095 0 0
  phy
    16 -33.241698 -21.487956 -54.927027 -0.223821 0.830806 0.509574 0 0
    16 -21.401601 -56.972777 -80.117036 0.158296 0.779488 0.606087 0 0
    16 -33.241713 -57.547166 -35.797115 0.126362 0.988148 -0.087154 0 0
  phy
    16 -33.241698 -21.487956 -54.927027 -0.223821 0.830806 0.509574 0 0
    16 -33.241713 -57.547166 -35.797115 0.126362 0.988148 -0.087154 0 0
    16 -33.241698 -19.235656 -47.693524 -0.552235 0.569404 -0.608946 0 0
  phy
    16 -22.878301 -19.235660 -47.693523 -0.083707 -0.821243 -0.564406 0 0
    16 -33.241713 -57.547166 -35.797115 0.126362 0.988148 -0.087154 0 0
    16 -19.759114 -57.547172 -35.797114 0.397002 -0.819466 -0.413357 0 0
  phy
    16 -33.241713 -57.547166 -35.797115 0.126362 0.988148 -0.087154 0 0
    16 -22.878301 -19.235660 -47.693523 -0.083707 -0.821243 -0.564406 0 0
    16 -33.241698 -19.235656 -47.693524 -0.552235 0.569404 -0.608946 0 0
  phy
    2 15.541226 31.046274 18.259739 0.883670 -0.316707 -0.344708 0 0
    2 15.541252 31.046298 -20.014959 0.886938 0.280491 -0.366968 0 0
    2 -16.097177 31.046299 18.259717 0.887752 -0.421992 0.183899 0 0
  phy
    2 -16.097177 31.046299 18.259717 0.887752 -0.421992 0.183899 0 0
    2 24.489304 12.823365 26.361130 -0.886939 -0.280492 -0.366966 0 0
    2 15.541226 31.046274 18.259739 0.883670 -0.316707 -0.344708 0 0
  phy
    2 15.541252 31.046298 -20.014959 0.886938 0.280491 -0.366968 0 0
    2 15.541226 31.046274 18.259739 0.883670 -0.316707 -0.344708 0 0
    2 24.489304 12.823365 26.361130 -0.886939 -0.280492 -0.366966 0 0
  phy
    2 -25.045296 12.823403 26.361094 -0.639469 -0.336111 0.691454 0 0
    2 -16.097151 31.046323 -20.014979 0.801985 0.161987 0.574961 0 0
    2 -25.045257 12.823439 -30.839994 -0.908972 0.351250 0.224482 0 0
  phy
    2 -25.045296 12.823403 26.361094 -0.639469 -0.336111 0.691454 0 0
    2 -16.097177 31.046299 18.259717 0.887752 -0.421992 0.183899 0 0
    2 -16.097151 31.046323 -20.014979 0.801985 0.161987 0.574961 0 0
  phy
    2 15.541252 31.046298 -20.014959 0.886938 0.280491 -0.366968 0 0
    2 -16.097151 31.046323 -20.014979 0.801985 0.161987 0.574961 0 0
    2 -16.097177 31.046299 18.259717 0.887752 -0.421992 0.183899 0 0
  phy
    2 -25.045296 12.823403 26.361094 -0.639469 -0.336111 0.691454 0 0
    2 24.489304 12.823365 26.361130 -0.886939 -0.280492 -0.366966 0 0
    2 -16.097177 31.046299 18.259717 0.887752 -0.421992 0.183899 0 0
  phy
    2 -25.045257 12.823439 -30.839994 -0.908972 0.351250 0.224482 0 0
    2 -16.097151 31.046323 -20.014979 0.801985 0.161987 0.574961 0 0
    2 15.541252 31.046298 -20.014959 0.886938 0.280491 -0.366968 0 0
  phy
    2 -25.045257 12.823439 -30.839994 -0.908972 0.351250 0.224482 0 0
    2 15.541252 31.046298 -20.014959 0.886938 0.280491 -0.366968 0 0
    2 24.489343 12.823400 -30.839961 -0.776643 0.428155 -0.462071 0 0
  phy
    2 24.489343 12.823400 -30.839961 -0.776643 0.428155 -0.462071 0 0
    2 15.541252 31.046298 -20.014959 0.886938 0.280491 -0.366968 0 0
    2 24.489304 12.823365 26.361130 -0.886939 -0.280492 -0.366966 0 0
  phy
    2 -25.045296 12.823403 26.361094 -0.639469 -0.336111 0.691454 0 0
    2 -25.045257 12.823439 -30.839994 -0.908972 0.351250 0.224482 0 0
    2 24.489304 12.823365 26.361130 -0.886939 -0.280492 -0.366966 0 0
  phy
    2 -25.045257 12.823439 -30.839994 -0.908972 0.351250 0.224482 0 0
    2 24.489343 12.823400 -30.839961 -0.776643 0.428155 -0.462071 0 0
    2 24.489304 12.823365 26.361130 -0.886939 -0.280492 -0.366966 0 0
  phy
    3 -8.458145 59.314706 7.522841 0.692962 -0.450107 0.563211 0 0
    3 -15.780773 31.828204 17.850216 -0.547575 -0.524795 0.651729 0 0
    3 8.721853 59.314694 7.522851 0.609949 -0.496986 -0.617225 0 0
  phy
    3 8.721853 59.314694 7.522851 0.609949 -0.496986 -0.617225 0 0
    3 -8.458145 59.314721 -14.430856 0.576023 0.523602 0.627725 0 0
    3 -8.458145 59.314706 7.522841 0.692962 -0.450107 0.563211 0 0
  phy
    3 -8.458145 59.314706 7.522841 0.692962 -0.450107 0.563211 0 0
    3 -8.458145 59.314721 -14.430856 0.576023 0.523602 0.627725 0 0
    3 -15.780773 31.828204 17.850216 -0.547575 -0.524795 0.651729 0 0
  phy
    3 8.721882 59.314709 -14.430845 0.618241 0.478348 -0.623667 0 0
    3 8.721853 59.314694 7.522851 0.609949 -0.496986 -0.617225 0 0
    3 15.746649 31.828304 -19.651357 -0.636365 0.494160 -0.592322 0 0
  phy
    3 8.721882 59.314709 -14.430845 0.618241 0.478348 -0.623667 0 0
    3 -8.458145 59.314721 -14.430856 0.576023 0.523602 0.627725 0 0
    3 8.721853 59.314694 7.522851 0.609949 -0.496986 -0.617225 0 0
  phy
    3 8.721882 59.314709 -14.430845 0.618241 0.478348 -0.623667 0 0
    3 15.746649 31.828304 -19.651357 -0.636365 0.494160 -0.592322 0 0
    3 -8.458145 59.314721 -14.430856 0.576023 0.523602 0.627725 0 0
  phy
    3 -15.780773 31.828204 17.850216 -0.547575 -0.524795 0.651729 0 0
    3 15.746625 31.828180 17.850235 -0.416079 -0.589344 -0.692497 0 0
    3 8.721853 59.314694 7.522851 0.609949 -0.496986 -0.617225 0 0
  phy
    3 15.746649 31.828304 -19.651357 -0.636365 0.494160 -0.592322 0 0
    3 8.721853 59.314694 7.522851 0.609949 -0.496986 -0.617225 0 0
    3 15.746625 31.828180 17.850235 -0.416079 -0.589344 -0.692497 0 0
  phy
    3 -15.780773 31.828204 17.850216 -0.547575 -0.524795 0.651729 0 0
    3 -15.780747 31.828328 -19.651376 -0.470655 0.563862 0.678633 0 0
    3 15.746649 31.828304 -19.651357 -0.636365 0.494160 -0.592322 0 0
  phy
    3 -15.780773 31.828204 17.850216 -0.547575 -0.524795 0.651729 0 0
    3 -8.458145 59.314721 -14.430856 0.576023 0.523602 0.627725 0 0
    3 -15.780747 31.828328 -19.651376 -0.470655 0.563862 0.678633 0 0
  phy
    3 15.746649 31.828304 -19.651357 -0.636365 0.494160 -0.592322 0 0
    3 -15.780747 31.828328 -19.651376 -0.470655 0.563862 0.678633 0 0
    3 -8.458145 59.314721 -14.430856 0.576023 0.523602 0.627725 0 0
  phy
    3 -15.780773 31.828204 17.850216 -0.547575 -0.524795 0.651729 0 0
    3 15.746649 31.828304 -19.651357 -0.636365 0.494160 -0.592322 0 0
    3 15.746625 31.828180 17.850235 -0.416079 -0.589344 -0.692497 0 0
  phy
    4 5.760883 85.987528 -7.829029 0.413090 0.598231 -0.686641 0 0
    4 5.760877 85.987516 2.612467 0.338251 -0.882953 -0.325546 0 0
    4 8.721853 59.633100 7.522852 -0.510708 -0.403314 -0.759286 0 0
  phy
    4 5.760883 85.987528 -7.829029 0.413090 0.598231 -0.686641 0 0
    4 8.721853 59.633100 7.522852 -0.510708 -0.403314 -0.759286 0 0
    4 8.721866 59.633114 -14.430844 -0.261129 0.594396 -0.760595 0 0
  phy
    4 5.760877 85.987516 2.612467 0.338251 -0.882953 -0.325546 0 0
    4 5.760883 85.987528 -7.829029 0.413090 0.598231 -0.686641 0 0
    4 -5.321022 85.987517 2.612462 0.621806 -0.569655 0.537448 0 0
  phy
    4 5.760883 85.987528 -7.829029 0.413090 0.598231 -0.686641 0 0
    4 -5.321013 85.987530 -7.829038 0.306455 0.308694 0.900441 0 0
    4 -5.321022 85.987517 2.612462 0.621806 -0.569655 0.537448 0 0
  phy
    4 -5.321022 85.987517 2.612462 0.621806 -0.569655 0.537448 0 0
    4 -8.458145 59.633114 7.522840 -0.119837 -0.652165 0.748545 0 0
    4 5.760877 85.987516 2.612467 0.338251 -0.882953 -0.325546 0 0
  phy
    4 -8.458145 59.633114 7.522840 -0.119837 -0.652165 0.748545 0 0
    4 8.721853 59.633100 7.522852 -0.510708 -0.403314 -0.759286 0 0
    4 5.760877 85.987516 2.612467 0.338251 -0.882953 -0.325546 0 0
  phy
    4 5.760883 85.987528 -7.829029 0.413090 0.598231 -0.686641 0 0
    4 -8.458130 59.633129 -14.430855 -0.467571 0.698444 0.541806 0 0
    4 -5.321013 85.987530 -7.829038 0.306455 0.308694 0.900441 0 0
  phy
    4 5.760883 85.987528 -7.829029 0.413090 0.598231 -0.686641 0 0
    4 8.721866 59.633114 -14.430844 -0.261129 0.594396 -0.760595 0 0
    4 -8.458130 59.633129 -14.430855 -0.467571 0.698444 0.541806 0 0
  phy
    4 -5.321022 85.987517 2.612462 0.621806 -0.569655 0.537448 0 0
    4 -5.321013 85.987530 -7.829038 0.306455 0.308694 0.900441 0 0
    4 -8.458145 59.633114 7.522840 -0.119837 -0.652165 0.748545 0 0
  phy
    4 8.721866 59.633114 -14.430844 -0.261129 0.594396 -0.760595 0 0
    4 8.721853 59.633100 7.522852 -0.510708 -0.403314 -0.759286 0 0
    4 -8.458130 59.633129 -14.430855 -0.467571 0.698444 0.541806 0 0
  phy
    4 -8.458130 59.633129 -14.430855 -0.467571 0.698444 0.541806 0 0
    4 8.721853 59.633100 7.522852 -0.510708 -0.403314 -0.759286 0 0
    4 -8.458145 59.633114 7.522840 -0.119837 -0.652165 0.748545 0 0
  phy
    4 -8.458145 59.633114 7.522840 -0.119837 -0.652165 0.748545 0 0
    4 -5.321013 85.987530 -7.829038 0.306455 0.308694 0.900441 0 0
    4 -8.458130 59.633129 -14.430855 -0.467571 0.698444 0.541806 0 0
  phy
    5 6.918397 111.432415 2.475984 0.143050 -0.597612 -0.788921 0 0
    5 5.729684 86.181617 -7.839530 -0.196999 0.522866 -0.829338 0 0
    5 6.918402 111.432416 -5.145014 0.373671 0.886747 -0.272119 0 0
  phy
    5 5.729684 86.181617 -7.839530 -0.196999 0.522866 -0.829338 0 0
    5 6.918397 111.432415 2.475984 0.143050 -0.597612 -0.788921 0 0
    5 5.729676 86.181614 2.475967 -0.339895 -0.869059 -0.359455 0 0
  phy
    5 6.918397 111.432415 2.475984 0.143050 -0.597612 -0.788921 0 0
    5 6.918402 111.432416 -5.145014 0.373671 0.886747 -0.272119 0 0
    5 -6.649902 111.432420 2.475976 0.289429 -0.915082 0.280814 0 0
  phy
    5 -6.649902 111.432420 2.475976 0.289429 -0.915082 0.280814 0 0
    5 5.729676 86.181614 2.475967 -0.339895 -0.869059 -0.359455 0 0
    5 6.918397 111.432415 2.475984 0.143050 -0.597612 -0.788921 0 0
  phy
    5 -5.595221 86.181618 2.475960 -0.245653 -0.516975 0.819995 0 0
    5 -6.649896 111.432422 -5.145024 0.208465 0.590556 0.779606 0 0
    5 -5.595214 86.181622 -7.839539 -0.252357 0.894167 0.369840 0 0
  phy
    5 -5.595221 86.181618 2.475960 -0.245653 -0.516975 0.819995 0 0
    5 -6.649902 111.432420 2.475976 0.289429 -0.915082 0.280814 0 0
    5 -6.649896 111.432422 -5.145024 0.208465 0.590556 0.779606 0 0
  phy
    5 -5.595221 86.181618 2.475960 -0.245653 -0.516975 0.819995 0 0
    5 5.729676 86.181614 2.475967 -0.339895 -0.869059 -0.359455 0 0
    5 -6.649902 111.432420 2.475976 0.289429 -0.915082 0.280814 0 0
  phy
    5 6.918402 111.432416 -5.145014 0.373671 0.886747 -0.272119 0 0
    5 -6.649896 111.432422 -5.145024 0.208465 0.590556 0.779606 0 0
    5 -6.649902 111.432420 2.475976 0.289429 -0.915082 0.280814 0 0
  phy
    5 6.918402 111.432416 -5.145014 0.373671 0.886747 -0.272119 0 0
    5 5.729684 86.181617 -7.839530 -0.196999 0.522866 -0.829338 0 0
    5 -5.595214 86.181622 -7.839539 -0.252357 0.894167 0.369840 0 0
  phy
    5 -5.595214 86.181622 -7.839539 -0.252357 0.894167 0.369840 0 0
    5 5.729684 86.181617 -7.839530 -0.196999 0.522866 -0.829338 0 0
    5 5.729676 86.181614 2.475967 -0.339895 -0.869059 -0.359455 0 0
  phy
    5 -5.595221 86.181618 2.475960 -0.245653 -0.516975 0.819995 0 0
    5 -5.595214 86.181622 -7.839539 -0.252357 0.894167 0.369840 0 0
    5 5.729676 86.181614 2.475967 -0.339895 -0.869059 -0.359455 0 0
  phy
    5 6.918402 111.432416 -5.145014 0.373671 0.886747 -0.272119 0 0
    5 -5.595214 86.181622 -7.839539 -0.252357 0.894167 0.369840 0 0
    5 -6.649896 111.432422 -5.145024 0.208465 0.590556 0.779606 0 0
  phy
    6 8.330225 136.066610 -7.075797 0.129584 0.941867 -0.309991 0 0
    6 8.330214 136.066501 3.066502 0.463674 -0.616731 -0.636121 0 0
    6 7.133900 111.630407 -5.190913 -0.266034 0.589151 -0.762972 0 0
  phy
    6 7.133900 111.630407 -5.190913 -0.266034 0.589151 -0.762972 0 0
    6 8.330214 136.066501 3.066502 0.463674 -0.616731 -0.636121 0 0
    6 7.133897 111.630405 2.401885 -0.292650 -0.928722 -0.227664 0 0
  phy
    6 7.133900 111.630407 -5.190913 -0.266034 0.589151 -0.762972 0 0
    6 7.133897 111.630405 2.401885 -0.292650 -0.928722 -0.227664 0 0
    6 -6.579496 111.630420 -5.190922 -0.332256 0.818240 0.469136 0 0
  phy
    6 -6.579496 111.630420 -5.190922 -0.332256 0.818240 0.469136 0 0
    6 7.133897 111.630405 2.401885 -0.292650 -0.928722 -0.227664 0 0
    6 -6.579501 111.630418 2.401876 -0.322299 -0.827866 0.459088 0 0
  phy
    6 8.330225 136.066610 -7.075797 0.129584 0.941867 -0.309991 0 0
    6 7.133900 111.630407 -5.190913 -0.266034 0.589151 -0.762972 0 0
    6 -6.579496 111.630420 -5.190922 -0.332256 0.818240 0.469136 0 0
  phy
    6 -6.579501 111.630418 2.401876 -0.322299 -0.827866 0.459088 0 0
    6 -8.841484 136.066628 3.066494 0.129340 -0.859584 0.494355 0 0
    6 -6.579496 111.630420 -5.190922 -0.332256 0.818240 0.469136 0 0
  phy
    6 -6.579501 111.630418 2.401876 -0.322299 -0.827866 0.459088 0 0
    6 7.133897 111.630405 2.401885 -0.292650 -0.928722 -0.227664 0 0
    6 -8.841484 136.066628 3.066494 0.129340 -0.859584 0.494355 0 0
  phy
    6 8.330225 136.066610 -7.075797 0.129584 0.941867 -0.309991 0 0
    6 -6.579496 111.630420 -5.190922 -0.332256 0.818240 0.469136 0 0
    6 -8.841487 136.066737 -7.075817 0.515286 0.738205 0.435354 0 0
  phy
    6 8.330225 136.066610 -7.075797 0.129584 0.941867 -0.309991 0 0
    6 -8.841487 136.066737 -7.075817 0.515286 0.738205 0.435354 0 0
    6 8.330214 136.066501 3.066502 0.463674 -0.616731 -0.636121 0 0
  phy
    6 -8.841484 136.066628 3.066494 0.129340 -0.859584 0.494355 0 0
    6 -8.841487 136.066737 -7.075817 0.515286 0.738205 0.435354 0 0
    6 -6.579496 111.630420 -5.190922 -0.332256 0.818240 0.469136 0 0
  phy
    6 8.330214 136.066501 3.066502 0.463674 -0.616731 -0.636121 0 0
    6 -8.841487 136.066737 -7.075817 0.515286 0.738205 0.435354 0 0
    6 -8.841484 136.066628 3.066494 0.129340 -0.859584 0.494355 0 0
  phy
    6 -8.841484 136.066628 3.066494 0.129340 -0.859584 0.494355 0 0
    6 7.133897 111.630405 2.401885 -0.292650 -0.928722 -0.227664 0 0
    6 8.330214 136.066501 3.066502 0.463674 -0.616731 -0.636121 0 0
  phy
    7 -0.343953 170.203124 -5.141180 0.353643 0.367181 0.860299 0 0
    7 0.389144 170.660126 -0.814680 0.296237 -0.180591 -0.937886 0 0
    7 0.389147 170.203124 -5.141180 0.250496 0.130527 -0.959278 0 0
  phy
    7 -0.343953 170.203124 -5.141180 0.353643 0.367181 0.860299 0 0
    7 -0.343956 170.660126 -0.814681 0.259800 -0.080532 0.962299 0 0
    7 0.389144 170.660126 -0.814680 0.296237 -0.180591 -0.937886 0 0
  phy
    7 0.389147 170.203124 -5.141180 0.250496 0.130527 -0.959278 0 0
    7 0.389144 170.660126 -0.814680 0.296237 -0.180591 -0.937886 0 0
    7 8.246520 136.267424 -7.129897 -0.304607 0.229031 -0.924532 0 0
  phy
    7 0.389147 170.203124 -5.141180 0.250496 0.130527 -0.959278 0 0
    7 8.246520 136.267424 -7.129897 -0.304607 0.229031 -0.924532 0 0
    7 3.001939 154.337131 -12.881187 0.251175 0.654494 -0.713126 0 0
  phy
    7 -0.343953 170.203124 -5.141180 0.353643 0.367181 0.860299 0 0
    7 0.389147 170.203124 -5.141180 0.250496 0.130527 -0.959278 0 0
    7 3.001939 154.337131 -12.881187 0.251175 0.654494 -0.713126 0 0
  phy
    7 3.001927 154.794124 6.876109 0.296275 -0.629479 -0.718316 0 0
    7 -2.783872 154.794124 6.876107 0.279971 -0.774593 0.567117 0 0
    7 4.064916 142.593118 8.205402 -0.042584 -0.962956 -0.266276 0 0
  phy
    7 -2.783872 154.794124 6.876107 0.279971 -0.774593 0.567117 0 0
    7 -3.739482 142.593122 8.205398 -0.320721 -0.922453 0.214985 0 0
    7 4.064916 142.593118 8.205402 -0.042584 -0.962956 -0.266276 0 0
  phy
    7 -3.739482 142.593122 8.205398 -0.320721 -0.922453 0.214985 0 0
    7 8.246514 136.267421 2.998701 -0.235953 -0.345244 -0.908368 0 0
    7 4.064916 142.593118 8.205402 -0.042584 -0.962956 -0.266276 0 0
  phy
    7 3.001927 154.794124 6.876109 0.296275 -0.629479 -0.718316 0 0
    7 4.064916 142.593118 8.205402 -0.042584 -0.962956 -0.266276 0 0
    7 8.246514 136.267421 2.998701 -0.235953 -0.345244 -0.908368 0 0
  phy
    7 -3.739470 142.593127 -11.393598 -0.235998 0.951491 0.197408 0 0
    7 4.064929 142.593126 -11.393594 -0.333843 0.936592 -0.106510 0 0
    7 -8.879276 136.267430 -7.129908 -0.120745 0.329020 0.936572 0 0
  phy
    7 4.064929 142.593126 -11.393594 -0.333843 0.936592 -0.106510 0 0
    7 8.246520 136.267424 -7.129897 -0.304607 0.229031 -0.924532 0 0
    7 -8.879276 136.267430 -7.129908 -0.120745 0.329020 0.936572 0 0
  phy
    7 4.064929 142.593126 -11.393594 -0.333843 0.936592 -0.106510 0 0
    7 -3.739470 142.593127 -11.393598 -0.235998 0.951491 0.197408 0 0
    7 -2.783860 154.337132 -12.881190 0.179804 0.784176 0.593918 0 0
  phy
    7 3.001939 154.337131 -12.881187 0.251175 0.654494 -0.713126 0 0
    7 4.064929 142.593126 -11.393594 -0.333843 0.936592 -0.106510 0 0
    7 -2.783860 154.337132 -12.881190 0.179804 0.784176 0.593918 0 0
  phy
    7 8.246520 136.267424 -7.129897 -0.304607 0.229031 -0.924532 0 0
    7 4.064929 142.593126 -11.393594 -0.333843 0.936592 -0.106510 0 0
    7 3.001939 154.337131 -12.881187 0.251175 0.654494 -0.713126 0 0
  phy
    7 0.389144 170.660126 -0.814680 0.296237 -0.180591 -0.937886 0 0
    7 -2.783872 154.794124 6.876107 0.279971 -0.774593 0.567117 0 0
    7 3.001927 154.794124 6.876109 0.296275 -0.629479 -0.718316 0 0
  phy
    7 0.389144 170.660126 -0.814680 0.296237 -0.180591 -0.937886 0 0
    7 -0.343956 170.660126 -0.814681 0.259800 -0.080532 0.962299 0 0
    7 -2.783872 154.794124 6.876107 0.279971 -0.774593 0.567117 0 0
  phy
    7 0.389144 170.660126 -0.814680 0.296237 -0.180591 -0.937886 0 0
    7 3.001927 154.794124 6.876109 0.296275 -0.629479 -0.718316 0 0
    7 8.246514 136.267421 2.998701 -0.235953 -0.345244 -0.908368 0 0
  phy
    7 8.246520 136.267424 -7.129897 -0.304607 0.229031 -0.924532 0 0
    7 0.389144 170.660126 -0.814680 0.296237 -0.180591 -0.937886 0 0
    7 8.246514 136.267421 2.998701 -0.235953 -0.345244 -0.908368 0 0
  phy
    7 -2.783872 154.794124 6.876107 0.279971 -0.774593 0.567117 0 0
    7 -8.879284 136.267427 2.998690 -0.391926 -0.300867 0.869410 0 0
    7 -3.739482 142.593122 8.205398 -0.320721 -0.922453 0.214985 0 0
  phy
    7 -8.879284 136.267427 2.998690 -0.391926 -0.300867 0.869410 0 0
    7 8.246514 136.267421 2.998701 -0.235953 -0.345244 -0.908368 0 0
    7 -3.739482 142.593122 8.205398 -0.320721 -0.922453 0.214985 0 0
  phy
    7 -3.739470 142.593127 -11.393598 -0.235998 0.951491 0.197408 0 0
    7 -8.879276 136.267430 -7.129908 -0.120745 0.329020 0.936572 0 0
    7 -2.783860 154.337132 -12.881190 0.179804 0.784176 0.593918 0 0
  phy
    7 -0.343953 170.203124 -5.141180 0.353643 0.367181 0.860299 0 0
    7 -2.783860 154.337132 -12.881190 0.179804 0.784176 0.593918 0 0
    7 -8.879276 136.267430 -7.129908 -0.120745 0.329020 0.936572 0 0
  phy
    7 -8.879276 136.267430 -7.129908 -0.120745 0.329020 0.936572 0 0
    7 -0.343956 170.660126 -0.814681 0.259800 -0.080532 0.962299 0 0
    7 -0.343953 170.203124 -5.141180 0.353643 0.367181 0.860299 0 0
  phy
    7 -0.343953 170.203124 -5.141180 0.353643 0.367181 0.860299 0 0
    7 3.001939 154.337131 -12.881187 0.251175 0.654494 -0.713126 0 0
    7 -2.783860 154.337132 -12.881190 0.179804 0.784176 0.593918 0 0
  phy
    7 -8.879276 136.267430 -7.129908 -0.120745 0.329020 0.936572 0 0
    7 8.246520 136.267424 -7.129897 -0.304607 0.229031 -0.924532 0 0
    7 -8.879284 136.267427 2.998690 -0.391926 -0.300867 0.869410 0 0
  phy
    7 -8.879284 136.267427 2.998690 -0.391926 -0.300867 0.869410 0 0
    7 8.246520 136.267424 -7.129897 -0.304607 0.229031 -0.924532 0 0
    7 8.246514 136.267421 2.998701 -0.235953 -0.345244 -0.908368 0 0
  phy
    7 -2.783872 154.794124 6.876107 0.279971 -0.774593 0.567117 0 0
    7 -0.343956 170.660126 -0.814681 0.259800 -0.080532 0.962299 0 0
    7 -8.879284 136.267427 2.998690 -0.391926 -0.300867 0.869410 0 0
  phy
    7 -8.879284 136.267427 2.998690 -0.391926 -0.300867 0.869410 0 0
    7 -0.343956 170.660126 -0.814681 0.259800 -0.080532 0.962299 0 0
    7 -8.879276 136.267430 -7.129908 -0.120745 0.329020 0.936572 0 0
  phy
    20 22.737150 -21.488036 -54.926988 -0.622033 -0.569928 -0.536896 0 0
    20 33.100548 -21.488037 -54.926981 -0.311812 0.735975 -0.600927 0 0
    20 21.260477 -56.972850 -80.116943 -0.208350 0.687053 -0.696095 0 0
  phy
    20 22.737150 -21.488036 -54.926988 -0.622033 -0.569928 -0.536896 0 0
    20 21.260477 -56.972850 -80.116943 -0.208350 0.687053 -0.696095 0 0
    20 17.865678 -56.972850 -80.116946 0.432840 -0.885123 0.170902 0 0
  phy
    20 33.100548 -21.488037 -54.926981 -0.311812 0.735975 -0.600927 0 0
    20 22.737150 -21.488036 -54.926988 -0.622033 -0.569928 -0.536896 0 0
    20 22.737144 -19.235732 -47.693499 -0.012713 -0.885478 0.464508 0 0
  phy
    20 33.100548 -21.488037 -54.926981 -0.311812 0.735975 -0.600927 0 0
    20 22.737144 -19.235732 -47.693499 -0.012713 -0.885478 0.464508 0 0
    20 33.100542 -19.235731 -47.693486 -0.332060 0.461014 0.822923 0 0
  phy
    20 21.260477 -56.972850 -80.116943 -0.208350 0.687053 -0.696095 0 0
    20 33.100548 -21.488037 -54.926981 -0.311812 0.735975 -0.600927 0 0
    20 33.100537 -57.547197 -35.797053 0.196987 0.949299 -0.245006 0 0
  phy
    20 33.100537 -57.547197 -35.797053 0.196987 0.949299 -0.245006 0 0
    20 33.100548 -21.488037 -54.926981 -0.311812 0.735975 -0.600927 0 0
    20 33.100542 -19.235731 -47.693486 -0.332060 0.461014 0.822923 0 0
  phy
    20 22.737150 -21.488036 -54.926988 -0.622033 -0.569928 -0.536896 0 0
    20 17.865678 -56.972850 -80.116946 0.432840 -0.885123 0.170902 0 0
    20 22.737144 -19.235732 -47.693499 -0.012713 -0.885478 0.464508 0 0
  phy
    20 33.100537 -57.547197 -35.797053 0.196987 0.949299 -0.245006 0 0
    20 17.865678 -56.972850 -80.116946 0.432840 -0.885123 0.170902 0 0
    20 21.260477 -56.972850 -80.116943 -0.208350 0.687053 -0.696095 0 0
  phy
    20 17.865678 -56.972850 -80.116946 0.432840 -0.885123 0.170902 0 0
    20 19.617942 -57.547197 -35.797069 0.300850 -0.668738 0.679911 0 0
    20 22.737144 -19.235732 -47.693499 -0.012713 -0.885478 0.464508 0 0
  phy
    20 19.617942 -57.547197 -35.797069 0.300850 -0.668738 0.679911 0 0
    20 33.100542 -19.235731 -47.693486 -0.332060 0.461014 0.822923 0 0
    20 22.737144 -19.235732 -47.693499 -0.012713 -0.885478 0.464508 0 0
  phy
    20 33.100537 -57.547197 -35.797053 0.196987 0.949299 -0.245006 0 0
    20 19.617942 -57.547197 -35.797069 0.300850 -0.668738 0.679911 0 0
    20 17.865678 -56.972850 -80.116946 0.432840 -0.885123 0.170902 0 0
  phy
    20 33.100537 -57.547197 -35.797053 0.196987 0.949299 -0.245006 0 0
    20 33.100542 -19.235731 -47.693486 -0.332060 0.461014 0.822923 0 0
    20 19.617942 -57.547197 -35.797069 0.300850 -0.668738 0.679911 0 0
end
