"ShatteredGlass"
{
	"$basetexture" "maps/oc_nerv/LABS/SE1_glass_break_02"
	"$detail" "maps/oc_nerv/LABS/SE1_glass_break_02"
	"$envmap" "env_cubemap"
	"$surfaceprop" "glass"
	"%keywords" "labs"
//	"$envmapmask" "maps/oc_nerv/LABS/SE1_glass_break_02_Mask"
	"$translucent" 1
	"$basetexturetransform" "scale .7 .7"
	"$detailscale" 0.7
	"$unlitfactor" 0.0

	"ShatteredGlass_DX8"
	{
		"$unlitfactor" 0.3

		// This is roughly equal to the average value of envmapmask of the unbroken texture
		"$envmaptint" "{201 201 201}"
	}

	// On the low end, envmaptint + lightmap tint both use the average alpha value 
	"ShatteredGlass_DX7"
	{
		// This is roughly equal to the average value of alpha channel of the unbroken basetexture
		"$lightmaptint" "{128 128 128}"

		// This is roughly equal to the average value of envmapmask of the unbroken texture
		// times the average value of the alpha value of the unbroken base texture
		"$envmaptint" "{100 100 100}"
	}

	"$nocull" 1
	"Proxies"
	{
		"BreakableSurface"
		{
		}
	}
}