"refract" {
    "$normalmap" "refract\Refractglass002_normal"
    "$dudvmap" "refract\refractGlass002_dudv"
 	"$model" 1
	"$bluramount" "1"
	"$surfaceprop" "glass"
 	"$refractamount" ".100"
	"$REFRACTTINT" "{255 255 255}"
	"$scale" "[1 1]"
	//"$envmap" "env_cubemap"
	//"$envmaptint" "[.3 .4 .4]"
}
