"VertexlitGeneric"
{
	"$basetexture" "models/maps/Nerv/c130/wornmetal_d"
	"$surfaceprop" "metal"
	"$bumpmap" "models/maps/Nerv/c130/normalmap"
	"$halflambert"                "1"

	// PHONG
	"$phong"                      "1"
	"$phongboost"                 "0.25"
	"$phongfresnelranges"         "[1 3 6]"
	"$phongexponenttexture"       "models/maps/Nerv/c130/specular"
	//"$phongalbedotint"            "1"
	//"$phongalbedoboost"           "11"
	//"$phongtint"         "[0.75 0.8 1]"

	// ENVIRONMENT MAP
	"$envmap"                     "env_cubemap"
	"$envmaptint"                 "[.01 .01 .01]"
	//"$envmapfresnel"              "1"
	//"$envmapFresnelMinMaxExp"	"[0 5 .4]"	
	//"$envmapsaturation" ".01"
	//"$envmapcontrast" "0.1"

	// RIM LIGHT
	//"$rimlight"                   "1"
	//"$rimlightexponent"           "162"
	//"$rimlightboost"              "0.4"
	//"$rimmask"                    "1"
}
