"VertexLitGeneric"
{
	"$baseTexture" "models\APC\APCBase"
	"$surfaceprop" "metal"

	"$envmap" "env_cubemap"
	"$normalmapalphaenvmapmask" 1
	"$envmapcontrast" 1
	"$envmapsaturation" 1
	"$envmaptint" "[ .56 .67 .75 ]"
}
