VertexLitGeneric
{
	"$baseTexture" "models\weapons\KimM3\REDDOT"
	"$bumpmap"     "models\weapons\KimM3\REDDOT_NORM"
	"$normalmapalphaenvmapmask" "1"
	"$phong" 		"1"
	"$phongexponent" 	"40"
	"$phongboost" "0.75"
	"$phongfresnelranges" "[1 3 6]"
      //	"$phongalbedotint" "1"
}

