// envmaptint_fix
"VertexLitGeneric"
{
	// Original shader: VertexLitTexture
	"$basetexture" "models\weapons\KimM3\v_hand_sheet"
	"$bumpmap" "models/Weapons/V_hand/v_hand_sheet_normal"
	//"$envmap" "env_cubemap"
	//"$envmaptint" "[ .64 .64 .64 ]"
	"$normalmapalphaenvmapmask" 1

		"$phong" "1"
	"$phongexponent" "25"
	"$phongboost"	"1"
	"$phongfresnelranges"	"[.2 0.4 1]"
}
